…
``` r
<<<<<<< HEAD
### ERROR HERE ###
filter(movieLens, genres == "Drama")
```

    ## Error: object 'movieLens' not found
=======
### ERROR HERE ### 
filter(movieLens, genres == "Drama")
```

    ## # A tibble: 7,757 × 7
    ##    movieId title                             year genres userId rating timestamp
    ##      <int> <chr>                            <int> <fct>   <int>  <dbl>     <int>
    ##  1      31 Dangerous Minds                   1995 Drama       1    2.5    1.26e9
    ##  2    1172 Cinema Paradiso (Nuovo cinema P…  1989 Drama       1    4      1.26e9
    ##  3    1293 Gandhi                            1982 Drama       1    2      1.26e9
    ##  4      62 Mr. Holland's Opus                1995 Drama       2    3      8.35e8
    ##  5     261 Little Women                      1994 Drama       2    4      8.35e8
    ##  6     300 Quiz Show                         1994 Drama       2    3      8.35e8
    ##  7     508 Philadelphia                      1993 Drama       2    4      8.35e8
    ##  8     537 Sirens                            1994 Drama       2    4      8.35e8
    ##  9    2702 Summer of Sam                     1999 Drama       3    3.5    1.30e9
    ## 10    3949 Requiem for a Dream               2000 Drama       3    5      1.30e9
    ## # ℹ 7,747 more rows
>>>>>>> 1b9b97a87eb154633f3a7a9c1b41abef38604146

``` r
filter(movieLens, !genres == "Drama")
```

<<<<<<< HEAD
    ## Error: object 'movieLens' not found
=======
    ## # A tibble: 92,247 × 7
    ##    movieId title                            year genres  userId rating timestamp
    ##      <int> <chr>                           <int> <fct>    <int>  <dbl>     <int>
    ##  1    1029 Dumbo                            1941 Animat…      1    3      1.26e9
    ##  2    1061 Sleepers                         1996 Thrill…      1    3      1.26e9
    ##  3    1129 Escape from New York             1981 Action…      1    2      1.26e9
    ##  4    1263 Deer Hunter, The                 1978 Drama|…      1    2      1.26e9
    ##  5    1287 Ben-Hur                          1959 Action…      1    2      1.26e9
    ##  6    1339 Dracula (Bram Stoker's Dracula)  1992 Fantas…      1    3.5    1.26e9
    ##  7    1343 Cape Fear                        1991 Thrill…      1    2      1.26e9
    ##  8    1371 Star Trek: The Motion Picture    1979 Advent…      1    2.5    1.26e9
    ##  9    1405 Beavis and Butt-Head Do America  1996 Advent…      1    1      1.26e9
    ## 10    1953 French Connection, The           1971 Action…      1    4      1.26e9
    ## # ℹ 92,237 more rows
>>>>>>> 1b9b97a87eb154633f3a7a9c1b41abef38604146

``` r
filter(movieLens, year >= 2000)
```

<<<<<<< HEAD
    ## Error: object 'movieLens' not found
=======
    ## # A tibble: 29,535 × 7
    ##    movieId title                             year genres userId rating timestamp
    ##      <int> <chr>                            <int> <fct>   <int>  <dbl>     <int>
    ##  1    3510 Frequency                         2000 Drama…      3    4      1.30e9
    ##  2    3949 Requiem for a Dream               2000 Drama       3    5      1.30e9
    ##  3    5349 Spider-Man                        2002 Actio…      3    3      1.30e9
    ##  4    5669 Bowling for Columbine             2002 Docum…      3    3.5    1.30e9
    ##  5    6377 Finding Nemo                      2003 Adven…      3    3      1.30e9
    ##  6    7153 Lord of the Rings: The Return o…  2003 Actio…      3    2.5    1.30e9
    ##  7    7361 Eternal Sunshine of the Spotles…  2004 Drama…      3    3      1.30e9
    ##  8    8622 Fahrenheit 9/11                   2004 Docum…      3    3.5    1.30e9
    ##  9    8636 Spider-Man 2                      2004 Actio…      3    3      1.30e9
    ## 10   27369 Daria: Is It Fall Yet?            2000 Anima…      3    3.5    1.30e9
    ## # ℹ 29,525 more rows
…
``` r
filter(movieLens, rating > 4.5, year < 1995)
```

<<<<<<< HEAD
    ## Error: object 'year' not found
=======
    ## # A tibble: 8,386 × 7
    ##    movieId title                             year genres userId rating timestamp
    ##      <int> <chr>                            <int> <fct>   <int>  <dbl>     <int>
    ##  1     265 Like Water for Chocolate (Como …  1992 Drama…      2      5    8.35e8
    ##  2     266 Legends of the Fall               1994 Drama…      2      5    8.35e8
    ##  3     551 Nightmare Before Christmas, The   1993 Anima…      2      5    8.35e8
    ##  4     589 Terminator 2: Judgment Day        1991 Actio…      2      5    8.35e8
    ##  5     590 Dances with Wolves                1990 Adven…      2      5    8.35e8
    ##  6     592 Batman                            1989 Actio…      2      5    8.35e8
    ##  7     318 Shawshank Redemption, The         1994 Crime…      3      5    1.30e9
    ##  8     356 Forrest Gump                      1994 Comed…      3      5    1.30e9
    ##  9    1197 Princess Bride, The               1987 Actio…      3      5    1.30e9
    ## 10     260 Star Wars: Episode IV - A New H…  1977 Actio…      4      5    9.50e8
    ## # ℹ 8,376 more rows
…
<<<<<<< HEAD
    ## Error in movieLens %>% filter(!genres == "Drama") %>% select(title, genres, : could not find function "%>%"

## Exercise 2: Calculating with `mutate()`-like functions
=======
    ## # A tibble: 92,247 × 5
    ##    title                           genres                  year rating timestamp
    ##    <chr>                           <fct>                  <int>  <dbl>     <int>
    ##  1 Dumbo                           Animation|Children|Dr…  1941    3      1.26e9
    ##  2 Sleepers                        Thriller                1996    3      1.26e9
    ##  3 Escape from New York            Action|Adventure|Sci-…  1981    2      1.26e9
    ##  4 Deer Hunter, The                Drama|War               1978    2      1.26e9
    ##  5 Ben-Hur                         Action|Adventure|Drama  1959    2      1.26e9
    ##  6 Dracula (Bram Stoker's Dracula) Fantasy|Horror|Romanc…  1992    3.5    1.26e9
    ##  7 Cape Fear                       Thriller                1991    2      1.26e9
    ##  8 Star Trek: The Motion Picture   Adventure|Sci-Fi        1979    2.5    1.26e9
    ##  9 Beavis and Butt-Head Do America Adventure|Animation|C…  1996    1      1.26e9
    ## 10 French Connection, The          Action|Crime|Thriller   1971    4      1.26e9
    ## # ℹ 92,237 more rows
…
    ## Error in mutate(movieLens, average_rating = mean(rating)): could not find function "mutate"

## Exercise 3: Calculating with `summarise()`-like functions
=======
transmute(movieLens,
       average_rating = mean(rating,na.rm = TRUE))
```

    ## # A tibble: 100,004 × 1
    ##    average_rating
    ##             <dbl>
    ##  1           3.54
    ##  2           3.54
    ##  3           3.54
    ##  4           3.54
    ##  5           3.54
    ##  6           3.54
    ##  7           3.54
    ##  8           3.54
    ##  9           3.54
    ## 10           3.54
    ## # ℹ 99,994 more rows
…
``` r
movieLens %>%
  group_by(title) %>%
  tally()
```

<<<<<<< HEAD
    ## Error in movieLens %>% group_by(title) %>% tally(): could not find function "%>%"
=======
    ## # A tibble: 8,832 × 2
    ##    title                                  n
    ##    <chr>                              <int>
    ##  1 "\"Great Performances\" Cats"          2
    ##  2 "$9.99"                                3
    ##  3 "'Hellboy': The Seeds of Creation"     1
    ##  4 "'Neath the Arizona Skies"             1
    ##  5 "'Round Midnight"                      2
    ##  6 "'Salem's Lot"                         1
    ##  7 "'Til There Was You"                   4
    ##  8 "'burbs, The"                         19
    ##  9 "'night Mother"                        3
    ## 10 "(500) Days of Summer"                45
    ## # ℹ 8,822 more rows
…
``` r
<<<<<<< HEAD
### ERROR HERE ###
movieLens %>%
  tally(year)
```

    ## Error in movieLens %>% tally(year): could not find function "%>%"
=======
### ERROR HERE ### 
movieLens %>%
  count(year)
```

    ## # A tibble: 104 × 2
    ##     year     n
    ##    <int> <int>
    ##  1  1902     6
    ##  2  1915     2
    ##  3  1916     1
    ##  4  1917     2
    ##  5  1918     2
    ##  6  1919     1
    ##  7  1920    15
    ##  8  1921    12
    ##  9  1922    28
    ## 10  1923     3
    ## # ℹ 94 more rows
…
``` r
<<<<<<< HEAD
### ERROR HERE ###
movieLens %>%
  count(c(title, rating), sort = TRUE)
```

    ## Error in movieLens %>% count(c(title, rating), sort = TRUE): could not find function "%>%"
=======
### ERROR HERE ### 
movieLens %>%
  count(title, rating, sort = TRUE)
```

    ## # A tibble: 28,297 × 3
    ##    title                              rating     n
    ##    <chr>                               <dbl> <int>
    ##  1 Shawshank Redemption, The               5   170
    ##  2 Pulp Fiction                            5   138
    ##  3 Star Wars: Episode IV - A New Hope      5   122
    ##  4 Forrest Gump                            4   113
    ##  5 Schindler's List                        5   109
    ##  6 Godfather, The                          5   107
    ##  7 Forrest Gump                            5   102
    ##  8 Silence of the Lambs, The               4   102
    ##  9 Fargo                                   5   100
    ## 10 Silence of the Lambs, The               5   100
    ## # ℹ 28,287 more rows
…
We can calculate the mean rating by year, and store it in a new column
called `avg_rating`:

``` r
movieLens %>%
  group_by(year) %>%
  summarize(avg_rating = mean(rating))
```

<<<<<<< HEAD
    ## Error in movieLens %>% group_by(year) %>% summarize(avg_rating = mean(rating)): could not find function "%>%"
=======
    ## # A tibble: 104 × 2
    ##     year avg_rating
    ##    <int>      <dbl>
    ##  1  1902       4.33
    ##  2  1915       3   
    ##  3  1916       3.5 
    ##  4  1917       4.25
    ##  5  1918       4.25
    ##  6  1919       3   
    ##  7  1920       3.7 
    ##  8  1921       4.42
    ##  9  1922       3.80
    ## 10  1923       4.17
    ## # ℹ 94 more rows
…
    ## Error in movieLens %>% mutate(min_rating = min(rating), max_rating = max(rating)): could not find function "%>%"

## Exercise 5: Scoped variants with `across()`
=======
### ERROR HERE ### 
movieLens %>%
  group_by(title) %>%
  summarize(
    min_rating = min(rating),
    max_rating = max(rating)
  )
```

    ## # A tibble: 8,832 × 3
    ##    title                              min_rating max_rating
    ##    <chr>                                   <dbl>      <dbl>
    ##  1 "\"Great Performances\" Cats"             0.5        3  
    ##  2 "$9.99"                                   2.5        4.5
    ##  3 "'Hellboy': The Seeds of Creation"        2          2  
    ##  4 "'Neath the Arizona Skies"                0.5        0.5
    ##  5 "'Round Midnight"                         0.5        4  
    ##  6 "'Salem's Lot"                            3.5        3.5
    ##  7 "'Til There Was You"                      0.5        4  
    ##  8 "'burbs, The"                             1.5        4.5
    ##  9 "'night Mother"                           5          5  
    ## 10 "(500) Days of Summer"                    0.5        5  
    ## # ℹ 8,822 more rows
…
    ## Warning: There were 6 warnings in `summarise()`.
    ## The first warning was:
    ## ℹ In argument: `across(c(height, mass), ~min(.x, na.rm = TRUE))`.
    ## ℹ In group 4: `species = "Chagrian"`.
    ## Caused by warning in `min()`:
    ## ! no non-missing arguments to min; returning Inf
    ## ℹ Run `dplyr::last_dplyr_warnings()` to see the 5 remaining warnings.

    ## # A tibble: 38 × 3
    ##    species   height  mass
    ##    <chr>      <int> <dbl>
    ##  1 Aleena        79    15
    ##  2 Besalisk     198   102
    ##  3 Cerean       198    82
    ##  4 Chagrian     196   Inf
    ##  5 Clawdite     168    55
    ##  6 Droid         96    32
    ##  7 Dug          112    40
    ##  8 Ewok          88    20
    ##  9 Geonosian    183    80
    ## 10 Gungan       196    66
    ## # ℹ 28 more rows
…
